background-color: #7ac5f7  #77b5fe
box-shadow: 0 8px 32px rgb(31 160 222 / 46%)
0px 5px 10px rgb(2 68 98 / 62%)

.bg-gray-100 instead of .bg-secondary

.bg-gray-100 .box-counter-classic {
    background: rgb(255 255 255);
    box-shadow: 0 4px 44px rgba(17, 29, 48, 0.06);
}